{
	"LogEntry": {
		"properties": {
			"log": {
				"type": "string", 
				"index": "not_analyzed"
			}, 
			"user": {
				"type": "string", 
				"index": "not_analyzed"
			}, 
			"action": {
				"type": "string", 
				"index": "not_analyzed"
			}, 
			"target": {
				"type": "string", 
				"index": "not_analyzed"
			}, 
			"data": {
				"type": "string"
			}
		}
	}
}